{
  "data": [
    {
      "id": 8,
      "attributes": {
        "slug": "ayat-ayat-cinta",
        "title": "Ayat-Ayat Cinta",
        "description": "Ayat-Ayat Cinta\" mengisahkan tentang Fahri, seorang mahasiswa Indonesia yang belajar di Kairo, dan perjalanan cintanya dengan Aisha,",
        "publishedAt": "2024-05-20T01:48:36.773Z",
        "body": "Ayat-Ayat Cinta\" mengisahkan tentang Fahri, seorang mahasiswa Indonesia yang belajar di Kairo, dan perjalanan cintanya dengan Aisha, seorang wanita Arab yang taat beragama. Novel ini menjelajahi konflik-konflik kompleks yang muncul dari perbedaan budaya, agama, dan pandangan hidup. Dalam penggambaran yang detail tentang kehidupan di Kairo, novel ini juga menyoroti nilai-nilai spiritualitas dan toleransi.\n",
        "author": "wahyu",
        "image": {
          "data": {
            "id": 9,
            "attributes": {
              "url": "/uploads/9_386753eac0.jpg"
            }
          }
        }
      }
    },
    {
      "id": 7,
      "attributes": {
        "slug": "aadc",
        "title": "aadc part II update",
        "description": "aadc is indonesia film",
        "publishedAt": "2024-05-18T09:48:11.696Z",
        "body": "aadc is indonesia film",
        "author": "dinaa",
        "image": {
          "data": {
            "id": 8,
            "attributes": {
              "url": "/uploads/10_89e46e9931.jpg"
            }
          }
        }
      }
    },
    {
      "id": 6,
      "attributes": {
        "slug": "perahu-kertas",
        "title": "Perahu Kertas part II",
        "description": "Kisah romansa remaja tentang perjalanan mencari identitas dan makna dalam kehidupan.",
        "publishedAt": "2024-05-17T04:29:23.292Z",
        "body": "Perahu Kertas\" mengikuti perjalanan Kugy dan Keenan, dua remaja yang saling mencintai namun terpisahkan oleh berbagai rahasia dan perbedaan. Dalam upaya untuk mencari jati diri dan arti persahabatan, mereka melakukan perjalanan yang membingungkan dan mendalam. Novel ini menyentuh tema-tema seperti pertumbuhan pribadi, keberanian menghadapi rintangan, dan kekuatan cinta dalam mengatasi kesulitan hidup. PART II",
        "author": "poter",
        "image": {
          "data": {
            "id": 7,
            "attributes": {
              "url": "/uploads/5_9f550ab76d.jpg"
            }
          }
        }
      }
    }
  ],
  "meta": {
    "pagination": {
      "page": 1,
      "pageSize": 3,
      "pageCount": 3,
      "total": 7
    }
  }
}